[
    {
        "id": 3583,
        "grid": [
            ".##..#..#.",
            "....##....",
            "##..#..#..",
            ".....#....",
            ".#..#.....",
            "#.#.......",
            "#.....#..#",
            "....#....#",
            "...#.##.#.",
            ".#....##.#"
        ]
    },
    {
        "id": 3967,
        "grid": [
            "..###..#..",
            "#.........",
            ".........#",
            "#...#....#",
            "....#....#",
            "#...#....#",
            "#..#...#.#",
            "##....##..",
            "#....#....",
            "##.###.#.."
        ]
    },
    {
        "id": 3307,
        "grid": [
            ".#.#...#..",
            "......#..#",
            ".........#",
            "##.....##.",
            "..#.....#.",
            ".#...####.",
            "#....#.#.#",
            "......##.#",
            "#.##.#..##",
            ".....#.##."
        ]
    },
    {
        "id": 1741,
        "grid": [
            ".##..#.#..",
            "#..##.#...",
            ".#.....#..",
            "...####.##",
            "#.#..###..",
            "####.#....",
            "..#.##.#..",
            "#.....#.#.",
            "#.###.....",
            "####...###"
        ]
    },
    {
        "id": 3821,
        "grid": [
            ".#######.#",
            "...#......",
            "#.##.#...#",
            ".#...#####",
            "....#.##..",
            "#.#.#.....",
            "##......##",
            "#..#.....#",
            "##..#..#.#",
            "###..#.#.."
        ]
    },
    {
        "id": 1787,
        "grid": [
            "..##.#.###",
            "...##..#.#",
            "#..#.###.#",
            "..#.##..#.",
            "#.#.....##",
            "...#...#.#",
            "#..##..#.#",
            "##.#.##..#",
            "...#..#...",
            "..#..##..."
        ]
    },
    {
        "id": 2281,
        "grid": [
            "..#.#.##.#",
            ".......##.",
            "..#..#..#.",
            "....#.#..#",
            "#...#.##.#",
            "#..#.##.#.",
            "#.#....#.#",
            "#....##...",
            ".....#..##",
            "...#.#...#"
        ]
    },
    {
        "id": 3593,
        "grid": [
            "...#..#..#",
            ".........#",
            ".........#",
            "#.#..#...#",
            "##......##",
            "##........",
            "...#.#...#",
            "#...#...##",
            "...#.#.#..",
            "#..#......"
        ]
    },
    {
        "id": 3259,
        "grid": [
            ".####.....",
            "....#.#.##",
            "#....#..##",
            "#........#",
            ".....#....",
            ".#.....#.#",
            "...##....#",
            "#.....#.#.",
            "#.#..#....",
            "#.#..##.#."
        ]
    },
    {
        "id": 2663,
        "grid": [
            ".####..###",
            "#.#..##...",
            "#..#...#..",
            "#..#....#.",
            "..#.##...#",
            ".#....#.#.",
            "#..#....#.",
            "#.#.......",
            ".#.#......",
            "..#..#####"
        ]
    },
    {
        "id": 3833,
        "grid": [
            "####....#.",
            ".......#.#",
            ".#........",
            "#...#.##.#",
            "#.##.#.#.#",
            "...#.....#",
            "##...#...#",
            "#.#.##...#",
            "##.#.#.##.",
            ".##.###.##"
        ]
    },
    {
        "id": 3373,
        "grid": [
            "#.....##.#",
            "#...###..#",
            "..#.#..#..",
            "####..#.##",
            "#...#.##.#",
            "#..##.#...",
            "#..##...##",
            "#.####....",
            "##..#...#.",
            "##.##.#.##"
        ]
    },
    {
        "id": 1511,
        "grid": [
            ".#.###...#",
            "#....#...#",
            ".##.#.....",
            "...##.###.",
            "#.##.##..#",
            "####.#..##",
            "#..#.#....",
            "#.......#.",
            "#......#.#",
            "###...#..."
        ]
    },
    {
        "id": 1723,
        "grid": [
            "...##..#.#",
            "..#..#...#",
            ".##.....#.",
            "#..#......",
            ".#..#.#..#",
            ".#........",
            "...#.#..##",
            "##.......#",
            "..#..###..",
            "#####...##"
        ]
    },
    {
        "id": 1543,
        "grid": [
            "#..#.##.##",
            "#.....#..#",
            ".....#.#.#",
            "###.......",
            "...##....#",
            "..#..#...#",
            "#.....##.#",
            "#.#..##.##",
            "...###....",
            "###.#...#."
        ]
    },
    {
        "id": 1433,
        "grid": [
            "##.##..##.",
            "###....#.#",
            "..#.....##",
            ".#.##..#..",
            ".#.#...###",
            "#.#.....#.",
            "..##.....#",
            "#....#....",
            "..#.#...#.",
            ".#...#####"
        ]
    },
    {
        "id": 1949,
        "grid": [
            "#.#..##..#",
            ".........#",
            ".#.......#",
            "#..##..###",
            "........##",
            "#........#",
            ".....#...#",
            "...####.#.",
            ".#...##...",
            "###.#.#..#"
        ]
    },
    {
        "id": 3889,
        "grid": [
            "###...####",
            "#....##..#",
            ".#.###...#",
            "##..#.....",
            ".....#....",
            "....#.#.#.",
            ".........#",
            "#....##..#",
            "##.##..##.",
            "#.###.####"
        ]
    },
    {
        "id": 2477,
        "grid": [
            ".....#..##",
            "#.##.###..",
            "###..#...#",
            ".#....#.#.",
            "#..#......",
            "...#.....#",
            "##.....#..",
            "..##.....#",
            ".##.#....#",
            "#####.####"
        ]
    },
    {
        "id": 2137,
        "grid": [
            "..########",
            "#..#......",
            "...#.##..#",
            "#.#..#...#",
            ".#..#...##",
            "##.....#.#",
            ".#....##..",
            ".##.......",
            ".#..####..",
            "#..###...#"
        ]
    },
    {
        "id": 3313,
        "grid": [
            "..####.#.#",
            "#..#.....#",
            "#....#....",
            "..##..##..",
            "#....##...",
            "..........",
            "#.........",
            ".......###",
            "##........",
            ".###...###"
        ]
    },
    {
        "id": 1493,
        "grid": [
            "#..####.##",
            "##.#..#...",
            "#.#.....##",
            ".##......#",
            ".##...#..#",
            "#..##....#",
            "#.#.#.#.#.",
            "#.#...#..#",
            "#.#.#....#",
            "#.####...#"
        ]
    },
    {
        "id": 1579,
        "grid": [
            ".##..##.##",
            "#.#.......",
            ".......#..",
            "..#...##..",
            "#..####...",
            ".#.#.##.##",
            "###.#.....",
            "#....##.##",
            "....#...##",
            "##....#.#."
        ]
    },
    {
        "id": 2221,
        "grid": [
            ".#.#......",
            ".......##.",
            "#..#.#...#",
            "..###.###.",
            "....#...##",
            "##.#..##..",
            "..##.#.#..",
            "......####",
            "..##.#.#..",
            ".###..#.##"
        ]
    },
    {
        "id": 3643,
        "grid": [
            "..###...#.",
            "#..#..#..#",
            ".##.......",
            "#..###....",
            "##...##.##",
            "#...#...#.",
            "###......#",
            "....#..#.#",
            ".#.#.....#",
            "..#..#.#.."
        ]
    },
    {
        "id": 3881,
        "grid": [
            "###.##.##.",
            ".####..###",
            "#.###..##.",
            "....#...#.",
            "##...#..#.",
            "#........#",
            "....#...#.",
            "...#.....#",
            ".#.....##.",
            ".####..#.#"
        ]
    },
    {
        "id": 3823,
        "grid": [
            "..#.##..##",
            "#...#....#",
            "..#...#...",
            "#.#.##...#",
            ".####....#",
            ".#...#...#",
            "..........",
            ".........#",
            "...#..#...",
            "....#..#.#"
        ]
    },
    {
        "id": 3181,
        "grid": [
            "####..##.#",
            "#.....##.#",
            "#.......##",
            ".......#.#",
            "..#..##.#.",
            "##..#..#..",
            "...##.....",
            ".........#",
            "....#.##..",
            ".##.###.#."
        ]
    },
    {
        "id": 2837,
        "grid": [
            ".###.#.###",
            "#.##..#.##",
            ".....##...",
            "###......#",
            "##.......#",
            "........##",
            "##.##..#..",
            "....###...",
            "..........",
            "#......#.#"
        ]
    },
    {
        "id": 2063,
        "grid": [
            "..#####...",
            "..........",
            "........#.",
            "..##.....#",
            "###...#.#.",
            "#.#.....#.",
            ".....#..##",
            "#.......#.",
            "##....##..",
            "#.##.###.#"
        ]
    },
    {
        "id": 1187,
        "grid": [
            "#...##..##",
            "#........#",
            "#.#.......",
            "...#.#....",
            ".....#.#.#",
            "#....#....",
            "..###.....",
            ".#........",
            "..#...###.",
            "####.#.#.#"
        ]
    },
    {
        "id": 3137,
        "grid": [
            "...###..#.",
            "#.##.....#",
            "..#...#..#",
            "#..#.....#",
            "......#...",
            "#.....##.#",
            "...#......",
            "#.#.#.####",
            "..#....#..",
            ".#..#.#.##"
        ]
    },
    {
        "id": 2411,
        "grid": [
            "#.....##..",
            ".......#.#",
            ".....##...",
            "#.#.......",
            "#..##....#",
            ".##.##....",
            ".##...##..",
            "#.#.......",
            "##.....#.#",
            ".##.###..."
        ]
    },
    {
        "id": 2713,
        "grid": [
            "..#.#.####",
            "...####.#.",
            "##..#...#.",
            "#..##.....",
            "#...#.....",
            ".#...#.###",
            "..........",
            "#.#.##..#.",
            "#.#..#..#.",
            ".#..##.#.#"
        ]
    },
    {
        "id": 1103,
        "grid": [
            "##.#...##.",
            "#.....##..",
            "...###..#.",
            "..##.....#",
            ".####..#..",
            "..#.###.#.",
            "##.....#..",
            ".#..#....#",
            "#........#",
            "####...##."
        ]
    },
    {
        "id": 3943,
        "grid": [
            ".###......",
            "#...#.#...",
            "..##..#..#",
            ".##..#.#.#",
            "..........",
            "##...#....",
            "#..#...#..",
            "#..###...#",
            "###....###",
            "#.#....###"
        ]
    },
    {
        "id": 1871,
        "grid": [
            "##.#...##.",
            "#......#..",
            ".#.##.....",
            ".#####.#..",
            "#.#....#..",
            "#..#....##",
            "#..####.#.",
            "#....#....",
            "...#.....#",
            "...#.##.#."
        ]
    },
    {
        "id": 3407,
        "grid": [
            "#.#.#####.",
            "##.#..#..#",
            ".###.#.#.#",
            "..#.......",
            "##.###.#..",
            ".....#.###",
            "#.#.......",
            "##..#.#..#",
            "#.#.##.#.#",
            "#..#..###."
        ]
    },
    {
        "id": 2441,
        "grid": [
            "#####.#..#",
            "...#.#....",
            "..#...#..#",
            ".##....#..",
            "#.##..#...",
            ".##.#..#.#",
            "##.......#",
            ".##..#....",
            ".......#..",
            ".#..#.###."
        ]
    },
    {
        "id": 3637,
        "grid": [
            ".#..##.#.#",
            "...##..#..",
            "#.#.###...",
            "#....#...#",
            "..#.....##",
            "#....#...#",
            "#..#.#.#..",
            "....#..#.#",
            "....#.#..#",
            ".#.###.##."
        ]
    },
    {
        "id": 1549,
        "grid": [
            "....##.##.",
            ".#....#...",
            "..####.#..",
            "....#.#..#",
            "#........#",
            "..#.......",
            ".#.#....##",
            "...######.",
            "#...##....",
            ".#...##..."
        ]
    },
    {
        "id": 1481,
        "grid": [
            "...##.##..",
            "#...#.##..",
            "#..#..#.#.",
            "#.#.#...#.",
            "#...#.##..",
            ".##....#..",
            "#........#",
            "....#.#...",
            "#.#.....##",
            "#.....####"
        ]
    },
    {
        "id": 1559,
        "grid": [
            "#..#....#.",
            "..#.##.#.#",
            "#.....#.##",
            ".###.#...#",
            "..####..##",
            "#..#.#..#.",
            "#.#...###.",
            "#.....#.#.",
            ".#.....#..",
            "#..####.#."
        ]
    },
    {
        "id": 2251,
        "grid": [
            "#..#.....#",
            ".#..#.....",
            "#.#....#..",
            "#....##..#",
            "##....#..#",
            "..#..#....",
            "#.#.#.#...",
            "#...#....#",
            "###..#.##.",
            "##..#.####"
        ]
    },
    {
        "id": 2897,
        "grid": [
            "...###....",
            "##..#....#",
            ".........#",
            ".#.......#",
            "...#.....#",
            "..#..#...#",
            ".#...#...#",
            "#....#....",
            ".#......##",
            "..##...##."
        ]
    },
    {
        "id": 2239,
        "grid": [
            "#..###..#.",
            ".#.......#",
            ".#..#..#..",
            "#.##....##",
            "#....#.#.#",
            "##..#.....",
            "#........#",
            "...##.#..#",
            "#...###..#",
            "...#.#.###"
        ]
    },
    {
        "id": 2593,
        "grid": [
            ".#....##.#",
            "##......##",
            "..#..##...",
            ".#..#.....",
            "...#.#...#",
            "#.#..#.#..",
            "......#.#.",
            "#...##...#",
            "###..##..#",
            "#.#####.##"
        ]
    },
    {
        "id": 3697,
        "grid": [
            "##.######.",
            "###....#..",
            "#.....##.#",
            "##...#..##",
            "#.....#..#",
            ".#.#..#...",
            "#......##.",
            "#.#.#.#.#.",
            ".........#",
            "....####.."
        ]
    },
    {
        "id": 3739,
        "grid": [
            "##.#......",
            ".#.....#.#",
            "..#.....##",
            "#....##...",
            "##.#...#..",
            "###.#...##",
            ".#...#.###",
            ".#..#.##.#",
            "..#..#..#.",
            "...#.##..."
        ]
    },
    {
        "id": 2459,
        "grid": [
            ".#.####...",
            "#..#...#..",
            ".....#.##.",
            "..#....##.",
            "#......##.",
            "##...#..##",
            "#....#....",
            "###...#..#",
            "###.##.###",
            ".....##..."
        ]
    },
    {
        "id": 2939,
        "grid": [
            "##.#.#....",
            "#..#.#####",
            "#...###.#.",
            "..#...#.##",
            ".#.....##.",
            "###....#..",
            ".##...#..#",
            ".....#.#..",
            "..#..#....",
            "..##..#.##"
        ]
    },
    {
        "id": 2347,
        "grid": [
            ".###..#..#",
            "##......#.",
            "#......#..",
            "#...#....#",
            "#......#..",
            "##.......#",
            "..#.......",
            "#.##..#...",
            "#..#..###.",
            "#....##..#"
        ]
    },
    {
        "id": 2381,
        "grid": [
            "######....",
            "##.......#",
            ".#....###.",
            "#.##.##.#.",
            "#.#..#....",
            ".........#",
            "....#..#.#",
            "#####.....",
            "..##....##",
            "#..###...#"
        ]
    },
    {
        "id": 2503,
        "grid": [
            "#.#...###.",
            "#...#..#..",
            ".##.#.#.##",
            ".#.....#..",
            "#...##....",
            "##.#.....#",
            "...#..#..#",
            "..#.##...#",
            "......#...",
            "##..#..##."
        ]
    },
    {
        "id": 3023,
        "grid": [
            ".#...#....",
            "#.##...#..",
            "##....#...",
            ".#..#.....",
            ".#.#.....#",
            "#.#.......",
            "##..#.#.#.",
            "#...#.#...",
            "...#..#.##",
            "#...##.###"
        ]
    },
    {
        "id": 3851,
        "grid": [
            "#..##.#.#.",
            "#...#....#",
            "###..#....",
            "#.#.#...##",
            "..#.#..#.#",
            "#.......#.",
            "..#.....##",
            "..........",
            "#.#.#.#..#",
            "..#.##..#."
        ]
    },
    {
        "id": 1009,
        "grid": [
            ".####.##..",
            "#.........",
            ".#.#......",
            "..#.#.....",
            "#......##.",
            "###.......",
            "#.#.......",
            ".......#.#",
            ".#....#.##",
            "#.####.#.#"
        ]
    },
    {
        "id": 1151,
        "grid": [
            ".#.##..#..",
            "..#......#",
            "##....##.#",
            "#......###",
            "##.....#..",
            "##..#.#..#",
            "...#......",
            ".##...##..",
            "##..###..#",
            "######.###"
        ]
    },
    {
        "id": 2683,
        "grid": [
            "#..#.#..##",
            ".#....#.#.",
            "#...##....",
            "....###...",
            "...#..#...",
            "..#.......",
            "...#...#..",
            "....#.#...",
            "..#..#...#",
            "..#.#.##.."
        ]
    },
    {
        "id": 3323,
        "grid": [
            "#.#..##.##",
            "#.#....###",
            "#.##.###.#",
            "##....#...",
            "##..#.....",
            "###.#.#.##",
            "#......#.#",
            "..#....##.",
            "#......#.#",
            ".##...#..#"
        ]
    },
    {
        "id": 2333,
        "grid": [
            "##.#..#..#",
            "#..##.....",
            ".........#",
            ".#.#.#....",
            "#...##...#",
            "#.#.#....#",
            "..#.###..#",
            "....###.#.",
            "#...#....#",
            "..#.....#."
        ]
    },
    {
        "id": 2543,
        "grid": [
            "#..###.#..",
            "....#..#.#",
            "..#...#.#.",
            "#...##...#",
            ".#.....###",
            "..........",
            "#..#....#.",
            "#....#..#.",
            "#.#..##..#",
            "##...#..##"
        ]
    },
    {
        "id": 1483,
        "grid": [
            "###..##..#",
            ".#......#.",
            ".......#.#",
            "#........#",
            "...#...#.#",
            "#.#.#.....",
            "#......#.#",
            "#...#.#...",
            "#...####..",
            "#.##..#..#"
        ]
    },
    {
        "id": 2027,
        "grid": [
            ".#..#....#",
            "....##....",
            "....#...##",
            "#.#..#....",
            "#.#.....##",
            ".......#.#",
            "#...#.....",
            ".##....#.#",
            "###.#.##.#",
            ".###.#.###"
        ]
    },
    {
        "id": 1699,
        "grid": [
            "#.###..##.",
            "..#.###...",
            ".........#",
            ".#.#..#..#",
            "...##.##..",
            "#........#",
            ".......#.#",
            "##..#...##",
            ".....#....",
            "#########."
        ]
    },
    {
        "id": 2843,
        "grid": [
            "#...#.####",
            "....#.##..",
            "...#....#.",
            ".....#....",
            "#..##.....",
            ".....#....",
            "###.#.....",
            "......#..#",
            "#.#.#...##",
            "#...##.##."
        ]
    },
    {
        "id": 1597,
        "grid": [
            "#..#######",
            "..........",
            ".#........",
            "#..##.#...",
            "##.....#..",
            "##.###...#",
            ".....###.#",
            "...##.#..#",
            "#....#...#",
            "##.#.#####"
        ]
    },
    {
        "id": 2311,
        "grid": [
            ".#.#.#.###",
            ".#.......#",
            "..#...#.##",
            "#..#....##",
            "#...#.....",
            ".........#",
            ".#.#...##.",
            ".#.##....#",
            "..#..#...#",
            "...##.#.#."
        ]
    },
    {
        "id": 1889,
        "grid": [
            "#.###.###.",
            ".#...#...#",
            "#........#",
            "#......#.#",
            "..#......#",
            "#......###",
            ".....#.##.",
            "#.....#..#",
            "........##",
            "####...#.#"
        ]
    },
    {
        "id": 3581,
        "grid": [
            "........##",
            ".#...#...#",
            "###.....#.",
            "..........",
            "#.#......#",
            "......#..#",
            "##........",
            "..#...####",
            "#..#......",
            ".##.###.##"
        ]
    },
    {
        "id": 1499,
        "grid": [
            "##.#.#....",
            ".##...##..",
            "##.....##.",
            "###.#...##",
            "..##....#.",
            ".#....#...",
            "#..#...##.",
            "..#....##.",
            ".#.....#..",
            "..#.####.#"
        ]
    },
    {
        "id": 2999,
        "grid": [
            ".#.###..#.",
            "#.#...#...",
            "##.#......",
            "...#..#...",
            "..###..###",
            "...#.#..#.",
            "#..##.#..#",
            ".........#",
            "..#....##.",
            "..#.###.#."
        ]
    },
    {
        "id": 1487,
        "grid": [
            "#....#....",
            ".#.....#..",
            ".#.#.....#",
            "#.#......#",
            "#.#.##....",
            "#.....#...",
            ".....#....",
            "##........",
            "##..##...#",
            "#.#..#...#"
        ]
    },
    {
        "id": 2969,
        "grid": [
            "#..#.#..##",
            "###..#...#",
            ".#..#.....",
            "...####.#.",
            "#.#.##..#.",
            "...###...#",
            "#...#.....",
            "..#...##..",
            "##..#.#..#",
            "#..#.###.#"
        ]
    },
    {
        "id": 1873,
        "grid": [
            "..###.#.#.",
            "..#.###.#.",
            "#.#.##...#",
            ".#...#...#",
            "....#.....",
            "##.....##.",
            ".....#.#..",
            "..#..#..#.",
            "..##..#..#",
            "##...#...."
        ]
    },
    {
        "id": 2029,
        "grid": [
            "#.#...####",
            "#....##...",
            ".#.#...##.",
            "#####.#.#.",
            "#..#......",
            "#...#..#..",
            "#.#.#..#.#",
            "#......#.#",
            "...####.#.",
            "..##.#.###"
        ]
    },
    {
        "id": 3517,
        "grid": [
            ".##...##..",
            ".#......#.",
            "....##....",
            "#.##..#..#",
            ".......##.",
            "#..#......",
            "...##...#.",
            "........##",
            "#...#....#",
            "..######.#"
        ]
    },
    {
        "id": 2803,
        "grid": [
            "#.##.###..",
            ".#..##...#",
            "...##.....",
            ".#.#.#.#..",
            "#.......#.",
            ".##.#.#..#",
            ".#.###.#..",
            ".#..#...##",
            "#...###...",
            ".###..#.##"
        ]
    },
    {
        "id": 1237,
        "grid": [
            ".######.##",
            "#.#.......",
            "....#....#",
            ".....#...#",
            "#.###.#.##",
            "#...####..",
            "#.#......#",
            "#.#.##.#.#",
            "#..#..#...",
            ".#..#....#"
        ]
    },
    {
        "id": 3877,
        "grid": [
            "..#.#.#.##",
            "..##...#..",
            "#..#...#..",
            "#.......#.",
            "#.......#.",
            "#...#.##..",
            ".#.......#",
            "....#..###",
            "##.......#",
            ".#.##.#.#."
        ]
    },
    {
        "id": 2081,
        "grid": [
            "####.#####",
            "....#..##.",
            "........##",
            "....#..##.",
            "#..#....#.",
            ".##...##..",
            "......#...",
            ".#....#..#",
            "#.#.#...##",
            ".##...##.#"
        ]
    },
    {
        "id": 2789,
        "grid": [
            ".#.##..#.#",
            ".......#..",
            "##.......#",
            "..#..#..##",
            "..#.......",
            ".#........",
            "#..##.#.#.",
            "###.#..###",
            "##..#...##",
            "..#..#...."
        ]
    },
    {
        "id": 3989,
        "grid": [
            "##.##...##",
            "#....#..#.",
            ".#....#.##",
            "#......#.#",
            "#.#..#....",
            "#....#.#.#",
            "...#...#..",
            "#........#",
            ".......#.#",
            "##.##.##.."
        ]
    },
    {
        "id": 1933,
        "grid": [
            ".....###.#",
            "#...#.#..#",
            ".#....#..#",
            ".#........",
            "#####.##..",
            "#..#.#...#",
            "#..#.#...#",
            "....##....",
            "#....#..#.",
            "##..#..##."
        ]
    },
    {
        "id": 1601,
        "grid": [
            "##.#..##..",
            ".#.###.#.#",
            "..#.###..#",
            "##.#.#....",
            ".....###.#",
            "##.##.####",
            "#.#...#..#",
            "#...##....",
            "...#......",
            ".####..###"
        ]
    },
    {
        "id": 1117,
        "grid": [
            "#..##..##.",
            "......##.#",
            "....##.#..",
            "#....#....",
            ".#.#.....#",
            ".....#.##.",
            "#....##...",
            "#.....#...",
            "..#..##.#.",
            ".#.###.#.."
        ]
    },
    {
        "id": 1409,
        "grid": [
            "#...###...",
            "#......#..",
            "........#.",
            ".#........",
            "##....#...",
            "#.......##",
            "#......#..",
            "......##.#",
            "#..###.#..",
            ".####.##.."
        ]
    },
    {
        "id": 3359,
        "grid": [
            "##.##....#",
            "#..#...#.#",
            "#....#####",
            "...##..#..",
            "..#..#...#",
            "........##",
            "...#...#.#",
            ".........#",
            "...#.#.#.#",
            "##.#....##"
        ]
    },
    {
        "id": 2539,
        "grid": [
            "...##.##.#",
            "#.##.#...#",
            "...##.#...",
            "..#.#..#..",
            "#.#..#.###",
            "......##.#",
            "#.......#.",
            ".#.......#",
            "#...####..",
            "..#...###."
        ]
    },
    {
        "id": 1607,
        "grid": [
            "##..###.#.",
            "#...#....#",
            "#.#.#..#..",
            "#..#....##",
            "#.#......#",
            "....##....",
            "#..###...#",
            "..#.##..##",
            "##....##.#",
            "...##..###"
        ]
    },
    {
        "id": 2971,
        "grid": [
            "#....#..##",
            ".##......#",
            "#..##.....",
            "#...##.##.",
            "#...#.##..",
            "....##...#",
            "..#.###...",
            "##.#.#..##",
            "#..#..###.",
            "#...###.##"
        ]
    },
    {
        "id": 2447,
        "grid": [
            "#..#..##.#",
            "#....##..#",
            ".....##...",
            "..#.###..#",
            "#..#.##...",
            "#.#.#...##",
            "#.#..###.#",
            "####..#...",
            "#.#...###.",
            "#..###..##"
        ]
    },
    {
        "id": 1709,
        "grid": [
            ".....#..##",
            "##....#...",
            ".........#",
            "...###..#.",
            "###......#",
            "..#..#...#",
            "#.###.#..#",
            "###....##.",
            "...#..##.#",
            "##.#...#.."
        ]
    },
    {
        "id": 3109,
        "grid": [
            ".#..###.##",
            "....#.#.##",
            "..#...#..#",
            "#...#.....",
            "####.#....",
            ".#.#...###",
            "###....#..",
            "#..###....",
            "..........",
            "##.##...##"
        ]
    },
    {
        "id": 2089,
        "grid": [
            "..####..#.",
            ".###.....#",
            "....#..###",
            ".#.......#",
            "..##.....#",
            "#.###....#",
            "#.#.##.#.#",
            "#.......#.",
            "...#.##.#.",
            "...#..#.##"
        ]
    },
    {
        "id": 1619,
        "grid": [
            "#...#.#.#.",
            "#.........",
            "#....##.##",
            "##....#...",
            "#####.....",
            "##.#..#..#",
            "###...#..#",
            "...#......",
            "##..#....#",
            ".##.##...#"
        ]
    },
    {
        "id": 3319,
        "grid": [
            "###.#.#.#.",
            ".#....#..#",
            "#.#.#...##",
            "...#.....#",
            "..........",
            "........#.",
            "..........",
            "...#.##..#",
            "#.#.#....#",
            "##......#."
        ]
    },
    {
        "id": 1621,
        "grid": [
            "#.###.###.",
            ".#...#...#",
            "#.#......#",
            "#....#....",
            "#..#.....#",
            "##..#..#..",
            ".###..#.#.",
            "#.#.#.####",
            "#.......##",
            "##.##...#."
        ]
    },
    {
        "id": 2857,
        "grid": [
            "##.#.#.#..",
            "...#...##.",
            "#......#..",
            "......#...",
            ".#.#..#...",
            ".##..#...#",
            "..###....#",
            "#.##......",
            "#.###...##",
            "..#..##.#."
        ]
    },
    {
        "id": 2143,
        "grid": [
            "#.#.......",
            "#...#.##..",
            "#..#.....#",
            "...#.....#",
            "#...#....#",
            "........##",
            "##....#.##",
            "##..##..#.",
            "#..#.....#",
            "#..##....#"
        ]
    },
    {
        "id": 3037,
        "grid": [
            "........##",
            "#....#..#.",
            "......#...",
            "....#.#...",
            "...###.###",
            "...###...#",
            "..........",
            "#.....#..#",
            "##..#.....",
            "#....#...."
        ]
    },
    {
        "id": 1733,
        "grid": [
            "#.#..#.#..",
            ".#....##..",
            "#..#.#...#",
            "........#.",
            ".........#",
            "##....#...",
            "#.....#..#",
            "#..####.#.",
            "#...##....",
            "..#....##."
        ]
    },
    {
        "id": 2657,
        "grid": [
            ".##...#..#",
            "#...#.##..",
            "##........",
            ".##......#",
            ".#...#...#",
            "..##...#..",
            ".........#",
            "....#...#.",
            "..#.##...#",
            "#..######."
        ]
    },
    {
        "id": 1451,
        "grid": [
            "#.....#..#",
            ".....#.##.",
            "......##..",
            "..#.......",
            "..........",
            "#..##....#",
            "###......#",
            "##.#.....#",
            "#...##.###",
            "###.#....."
        ]
    },
    {
        "id": 3191,
        "grid": [
            "####.#.#.#",
            ".........#",
            "###.#####.",
            "#.....##..",
            "...#....#.",
            "##..#....#",
            ".#..#.#..#",
            "#........#",
            "######..#.",
            ".####.####"
        ]
    },
    {
        "id": 3163,
        "grid": [
            ".#.##.#..#",
            "##.##.#.#.",
            "##..#....#",
            ".#....#.#.",
            "##.#.....#",
            ".#........",
            "#.#......#",
            "#.......##",
            "#........#",
            "###...###."
        ]
    },
    {
        "id": 3067,
        "grid": [
            ".#...##...",
            "..###.....",
            "##.#..#..#",
            "##.##..#..",
            ".......#..",
            "#...##.#..",
            "####....#.",
            "#.#....#..",
            "........#.",
            ".##.#....#"
        ]
    },
    {
        "id": 3203,
        "grid": [
            "##...#.#.#",
            ".##..#####",
            "#.......##",
            ".#....#...",
            ".#....#..#",
            "..#.#....#",
            "#....#.#..",
            "#....#####",
            "#...####..",
            "....##.###"
        ]
    },
    {
        "id": 3229,
        "grid": [
            "...#......",
            "#...#.....",
            "..##.#.##.",
            "#.#...#...",
            "#.##.#..##",
            "##....##..",
            "..#.###..#",
            ".....#...#",
            "...#.....#",
            "..#.#....."
        ]
    },
    {
        "id": 2083,
        "grid": [
            "....#.###.",
            "..........",
            ".........#",
            "...##..#.#",
            ".##..#....",
            "#..#..#...",
            "......#.#.",
            "#........#",
            "#.##......",
            "###..#.###"
        ]
    },
    {
        "id": 3253,
        "grid": [
            ".##..#.#..",
            ".#.#...#.#",
            "#.#....#..",
            "...#.....#",
            "#.........",
            "#.........",
            ".##......#",
            "......###.",
            "#.........",
            ".....#...#"
        ]
    },
    {
        "id": 1381,
        "grid": [
            "###...##.#",
            "#.#####.#.",
            "###..#..##",
            "#.........",
            "..#..#...#",
            "..#.#...##",
            ".#.#.....#",
            "..#...##.#",
            "##.#..#..#",
            "######...."
        ]
    },
    {
        "id": 2113,
        "grid": [
            ".....##..#",
            ".....###..",
            "...#.....#",
            "##.#..#...",
            "....#.....",
            "...#......",
            "#..###.#.#",
            "..........",
            "#.#.......",
            "..#..#.#.."
        ]
    },
    {
        "id": 1087,
        "grid": [
            "###..#.##.",
            "#....#....",
            "..#......#",
            "###.#....#",
            ".#.......#",
            "..#....##.",
            "#...#....#",
            "....#...##",
            "....#.#.#.",
            "#.#..#.###"
        ]
    },
    {
        "id": 2833,
        "grid": [
            ".....#...#",
            "#...#.#.#.",
            "#.......#.",
            "#......#.#",
            ".#.##.#...",
            "........##",
            "....#.#.##",
            "........##",
            "......#.#.",
            "######.#.."
        ]
    },
    {
        "id": 1063,
        "grid": [
            ".....###.#",
            "#####.#..#",
            "..###....#",
            "...#.##...",
            "###....#.#",
            ".....##...",
            "####.....#",
            "..##.#....",
            "#...#...#.",
            "...##.###."
        ]
    },
    {
        "id": 3049,
        "grid": [
            "#.#.#..###",
            "...##....#",
            "#..#..#.#.",
            "##.##..#..",
            "###.....##",
            "#.#..#.#..",
            "#..##....#",
            "#.#...#..#",
            "##..#..#.#",
            "....#####."
        ]
    },
    {
        "id": 1657,
        "grid": [
            "#..####...",
            "........##",
            ".........#",
            "#...#.#...",
            "#.#......#",
            ".#.#....#.",
            "#....###.#",
            "#..####.#.",
            "#..#..####",
            "...###..#."
        ]
    },
    {
        "id": 3863,
        "grid": [
            "##.#######",
            "..#.#.#...",
            "#....#..#.",
            "........##",
            "#.##......",
            "....#.....",
            "#.#..##...",
            "#.#......#",
            "..#..#.#..",
            "##.####..#"
        ]
    },
    {
        "id": 3083,
        "grid": [
            "##.#...###",
            ".#..#..#..",
            "#.#####...",
            "#..#.#....",
            "##.....#..",
            "#..##..###",
            ".#.#.....#",
            "#.#..#..##",
            ".#.#..#.##",
            "...#......"
        ]
    },
    {
        "id": 3853,
        "grid": [
            "#.###..###",
            "##..#..##.",
            ".....##.##",
            "......#..#",
            "...#.#..#.",
            "###....#..",
            "##.....#..",
            "##........",
            "...#..#..#",
            "###.###..#"
        ]
    },
    {
        "id": 2129,
        "grid": [
            "..#....#.#",
            "#...#.....",
            "##...##..#",
            "#.#.......",
            "....#.....",
            "##......##",
            "#..#......",
            "#..#..#...",
            "..........",
            "...#.#.#.."
        ]
    },
    {
        "id": 1759,
        "grid": [
            "..##..###.",
            ".......#..",
            ".#.#.....#",
            ".....#....",
            "#......#.#",
            "#.#......#",
            "#..#.#.#.#",
            "#..#.#...#",
            "#.#...#..#",
            ".##....#.#"
        ]
    },
    {
        "id": 3617,
        "grid": [
            "..#.#..###",
            "..###....#",
            "##.#.....#",
            "#.##....##",
            ".....#..#.",
            ".........#",
            "..........",
            ".####..#.#",
            "#.#...#.#.",
            "....##.##."
        ]
    },
    {
        "id": 2017,
        "grid": [
            "..#.##.#.#",
            "....#...##",
            "..........",
            ".#........",
            "#.....#...",
            "#.....#...",
            "#.........",
            "....#.#.#.",
            "..#.......",
            "..#...#.##"
        ]
    },
    {
        "id": 1277,
        "grid": [
            "..##...#.#",
            ".##..#..#.",
            ".#....##.#",
            "#....##...",
            "#..#.##..#",
            "###..##..#",
            ".........#",
            ".##.#.....",
            "..#.......",
            "##.###.#.."
        ]
    },
    {
        "id": 2617,
        "grid": [
            "###.......",
            "......#...",
            "##.##..#..",
            "#.#....#..",
            ".###....##",
            "..###..#.#",
            "##...##..#",
            "#..#......",
            "#..#..####",
            "#.##..#..."
        ]
    },
    {
        "id": 2719,
        "grid": [
            "..#.#.##.#",
            "........##",
            "...#.#....",
            "...##....#",
            ".#.##.#...",
            "..#.##.###",
            "##.#.....#",
            ".........#",
            "..#.#...##",
            "###.#..###"
        ]
    },
    {
        "id": 3671,
        "grid": [
            "#..##..###",
            "#...#...##",
            "..........",
            "...##.....",
            ".#..#.#..#",
            "#.#..#....",
            "#..###.###",
            "..##..####",
            "#.........",
            ".#..#.#..#"
        ]
    },
    {
        "id": 3389,
        "grid": [
            ".#....#.##",
            ".#..##.#.#",
            "#...##....",
            "##....#..#",
            "##......##",
            ".#...#....",
            "..#....#..",
            "....##....",
            "#.#...#.#.",
            "#.#.#..###"
        ]
    },
    {
        "id": 3457,
        "grid": [
            ".#########",
            "#..#......",
            "..##......",
            "#.........",
            ".#...#....",
            ".###.....#",
            ".......#.#",
            ".........#",
            "###....#..",
            "#.......##"
        ]
    },
    {
        "id": 1777,
        "grid": [
            "###.#.####",
            "#..#...###",
            ".#.#..#..#",
            ".......#..",
            "#.#..##.##",
            "..###.....",
            "###......#",
            ".#........",
            "#.####....",
            "##..######"
        ]
    },
    {
        "id": 3613,
        "grid": [
            "####.#...#",
            "##.......#",
            ".......##.",
            "#....#...#",
            "......##.#",
            "...#.#..##",
            "#......#..",
            "...#...#..",
            ".##..##...",
            ".#...#..#."
        ]
    },
    {
        "id": 3529,
        "grid": [
            ".#.##.#...",
            "##.....#.#",
            "#...#..#..",
            "......##.#",
            "##..#.##.#",
            "##........",
            "#.....#...",
            "...#...#..",
            "...##.#...",
            "..###....."
        ]
    },
    {
        "id": 1153,
        "grid": [
            "##.##.##..",
            "..#####..#",
            "##...#..#.",
            ".......###",
            ".#.......#",
            "..#.#.....",
            ".......#.#",
            "#...#..###",
            ".....#.#..",
            ".#.##....#"
        ]
    },
    {
        "id": 2467,
        "grid": [
            "####....##",
            "#..###...#",
            "#####....#",
            ".#......#.",
            "###.......",
            "##.......#",
            ".##.#.#..#",
            "....#.#...",
            "#........#",
            ".#..#.####"
        ]
    },
    {
        "id": 3947,
        "grid": [
            "#.##.##.#.",
            "##.......#",
            "......#..#",
            "#...#..###",
            ".....#.###",
            "##..#..#..",
            "...#.#...#",
            "#...#....#",
            ".......#.#",
            "#...#..#.#"
        ]
    },
    {
        "id": 1399,
        "grid": [
            ".##.#..###",
            "#.......#.",
            "#.......#.",
            ".....#..#.",
            "#........#",
            "##..#..#.#",
            ".##..##..#",
            "#..#......",
            "#.....#..#",
            "#.##..##.."
        ]
    },
    {
        "id": 2879,
        "grid": [
            "....###..#",
            "..#.......",
            "#...#.....",
            "...#.#....",
            ".........#",
            ".##..#.##.",
            ".#...###.#",
            ".#.....#.#",
            "..##.....#",
            "##...#.#.."
        ]
    },
    {
        "id": 1039,
        "grid": [
            "#......#.#",
            "##.##.###.",
            ".....##..#",
            "#........#",
            "..#.......",
            "#.........",
            ".#..#.#.#.",
            ".....###..",
            "#....#####",
            ".#.....###"
        ]
    },
    {
        "id": 2777,
        "grid": [
            "#..##...#.",
            "....#....#",
            "........#.",
            "##.#....#.",
            "..#.##...#",
            ".#....#.#.",
            "#....#....",
            "#..#.#...#",
            "#...##.#.#",
            "#.......#."
        ]
    },
    {
        "id": 1097,
        "grid": [
            "##...###..",
            "..#..####.",
            "##....#.##",
            "#.....##..",
            "...#....##",
            ".##..#....",
            "#.##..###.",
            "##...#....",
            "#.###....#",
            ".#.#.###.."
        ]
    },
    {
        "id": 3793,
        "grid": [
            "####.....#",
            "..........",
            ".#.##.#...",
            "....#....#",
            "#.....#...",
            "..###..##.",
            "##..#.#...",
            "##........",
            "#........#",
            ".###......"
        ]
    },
    {
        "id": 2689,
        "grid": [
            "####...#..",
            "..##....##",
            "#.#....#.#",
            ".....##..#",
            "#.......##",
            "#.........",
            "#.....#..#",
            "##........",
            ".......#.#",
            "#.###..#.#"
        ]
    }
]